project_2.sim/sim_1/behav/xsim/traffic.vcd
$date
   Thu Aug  7 17:52:03 2025
$end

$version
  2024.2.0
  $dumpfile ("traffic.vcd") 
$end

$timescale
  1ps
$end

$scope module smart_traffic_light_tb $end
$var reg 1 ! clk $end
$var reg 1 " reset $end
$var reg 1 # pedestrian_button $end
$var reg 4 $ emergency [3:0] $end
$var reg 1 % car_n $end
$var reg 1 & car_s $end
$var reg 1 ' car_e $end
$var reg 1 ( car_w $end
$var wire 3 ) n [2:0] $end
$var wire 3 * s [2:0] $end
$var wire 3 + e [2:0] $end
$var wire 3 , w [2:0] $end
$scope module dut $end
$var wire 1 - clk $end
$var wire 1 . reset $end
$var wire 1 / pedestrian_button $end
$var wire 4 0 emergency [3:0] $end
$var wire 1 1 car_n $end
$var wire 1 2 car_s $end
$var wire 1 3 car_e $end
$var wire 1 4 car_w $end
$var reg 3 5 n [2:0] $end
$var reg 3 6 s [2:0] $end
$var reg 3 7 e [2:0] $end
$var reg 3 8 w [2:0] $end
$var reg 4 9 state [3:0] $end
$var reg 4 : count [3:0] $end
$var reg 4 ; emergency_pending [3:0] $end
$var reg 1 < pedestrian_pending $end
$upscope $end
$upscope $end
$enddefinitions $end

#0
$dumpvars
0!
1"
0#
b0 $
0%
0&
0'
0(
bx )
bx *
bx +
bx ,
0-
1.
0/
b0 0
01
02
03
04
bx 5
bx 6
bx 7
bx 8
bx 9
bx :
bx ;
x<
$end

#5000
1!
b100 )
b100 *
b100 +
b100 ,
1-
b100 5
b100 6
b100 7
b100 8
b0 9
b0 :
b0 ;
0<

#10000
0!
0-

#15000
1!
1-

#20000
0!
0"
1%
0-
0.
11

#25000
1!
b1 )
1-
b1 5
b10 9

#30000
0!
0-

#35000
1!
1-
b1 :

#40000
0!
0-

#45000
1!
1-
b10 :

#50000
0!
0-

#55000
1!
1-
b11 :

#60000
0!
0-

#65000
1!
1-
b100 :

#70000
0!
0-

#75000
1!
1-
b101 :

#80000
0!
0-

#85000
1!
1-
b110 :

#90000
0!
0-

#95000
1!
1-
b111 :

#100000
0!
0-

#105000
1!
b10 )
1-
b10 5
b11 9
b0 :

#110000
0!
0-

#115000
1!
1-
b1 :

#120000
0!
0-

#125000
1!
1-
b10 :

#130000
0!
0-

#135000
1!
1-
b11 :

#140000
0!
0-

#145000
1!
b100 )
1-
b100 5
b0 9
b0 :

#150000
0!
0-

#155000
1!
b1 )
1-
b1 5
b10 9

#160000
0!
0-

#165000
1!
1-
b1 :

#170000
0!
0-

#175000
1!
1-
b10 :

#180000
0!
0-

#185000
1!
1-
b11 :

#190000
0!
0-

#195000
1!
1-
b100 :

#200000
0!
0-

#205000
1!
1-
b101 :

#210000
0!
0-

#215000
1!
1-
b110 :

#220000
0!
0%
0-
01

#225000
1!
1-
b111 :

#230000
0!
0-

#235000
1!
b10 )
1-
b10 5
b11 9
b0 :

#240000
0!
0-

#245000
1!
1-
b1 :

#250000
0!
0-

#255000
1!
1-
b10 :

#260000
0!
0-

#265000
1!
1-
b11 :

#270000
0!
0-

#275000
1!
b100 )
1-
b100 5
b0 9
b0 :

#280000
0!
0-

#285000
1!
1-

#290000
0!
0-

#295000
1!
1-

#300000
0!
0-

#305000
1!
1-

#310000
0!
0-

#315000
1!
1-

#320000
0!
1'
0-
13

#325000
1!
b1 +
1-
b1 7
b110 9

#330000
0!
0-

#335000
1!
1-
b1 :

#340000
0!
0-

#345000
1!
1-
b10 :

#350000
0!
0-

#355000
1!
1-
b11 :

#360000
0!
0-

#365000
1!
1-
b100 :

#370000
0!
0-

#375000
1!
1-
b101 :

#380000
0!
0-

#385000
1!
1-
b110 :

#390000
0!
0-

#395000
1!
1-
b111 :

#400000
0!
0-

#405000
1!
b10 +
1-
b10 7
b111 9
b0 :

#410000
0!
0-

#415000
1!
1-
b1 :

#420000
0!
0-

#425000
1!
1-
b10 :

#430000
0!
0-

#435000
1!
1-
b11 :

#440000
0!
0-

#445000
1!
b100 +
1-
b100 7
b0 9
b0 :

#450000
0!
0-

#455000
1!
b1 +
1-
b1 7
b110 9

#460000
0!
0-

#465000
1!
1-
b1 :

#470000
0!
0-

#475000
1!
1-
b10 :

#480000
0!
0-

#485000
1!
1-
b11 :

#490000
0!
0-

#495000
1!
1-
b100 :

#500000
0!
0-

#505000
1!
1-
b101 :

#510000
0!
0-

#515000
1!
1-
b110 :

#520000
0!
0'
0-
03

#525000
1!
1-
b111 :

#530000
0!
0-

#535000
1!
b10 +
1-
b10 7
b111 9
b0 :

#540000
0!
0-

#545000
1!
1-
b1 :

#550000
0!
0-

#555000
1!
1-
b10 :

#560000
0!
0-

#565000
1!
1-
b11 :

#570000
0!
0-

#575000
1!
b100 +
1-
b100 7
b0 9
b0 :

#580000
0!
0-

#585000
1!
1-

#590000
0!
0-

#595000
1!
1-

#600000
0!
0-

#605000
1!
1-

#610000
0!
0-

#615000
1!
1-

#620000
0!
1&
0-
12

#625000
1!
b1 *
1-
b1 6
b100 9

#630000
0!
0-

#635000
1!
1-
b1 :

#640000
0!
0-

#645000
1!
1-
b10 :

#650000
0!
0-

#655000
1!
1-
b11 :

#660000
0!
0-

#665000
1!
1-
b100 :

#670000
0!
1#
0-
1/

#675000
1!
1-
b101 :
1<

#680000
0!
0#
0-
0/

#685000
1!
1-
b110 :

#690000
0!
0-

#695000
1!
1-
b111 :

#700000
0!
0-

#705000
1!
b10 *
1-
b10 6
b101 9
b0 :

#710000
0!
0-

#715000
1!
1-
b1 :

#720000
0!
0-

#725000
1!
1-
b10 :

#730000
0!
0-

#735000
1!
1-
b11 :

#740000
0!
0-

#745000
1!
b100 *
1-
b100 6
b0 9
b0 :

#750000
0!
0-

#755000
1!
1-
b1 9
0<

#760000
0!
0-

#765000
1!
1-
b1 :

#770000
0!
0-

#775000
1!
1-
b10 :

#780000
0!
0-

#785000
1!
1-
b11 :

#790000
0!
0-

#795000
1!
1-
b100 :

#800000
0!
0-

#805000
1!
1-
b0 9
b0 :

#810000
0!
0-

#815000
1!
b1 *
1-
b1 6
b100 9

#820000
0!
0&
0-
02

#825000
1!
1-
b1 :

#830000
0!
0-

#835000
1!
1-
b10 :

#840000
0!
0-

#845000
1!
1-
b11 :

#850000
0!
0-

#855000
1!
1-
b100 :

#860000
0!
0-

#865000
1!
1-
b101 :

#870000
0!
0-

#875000
1!
1-
b110 :

#880000
0!
0-

#885000
1!
1-
b111 :

#890000
0!
0-

#895000
1!
b10 *
1-
b10 6
b101 9
b0 :

#900000
0!
0-

#905000
1!
1-
b1 :

#910000
0!
0-

#915000
1!
1-
b10 :

#920000
0!
0-

#925000
1!
1-
b11 :

#930000
0!
0-

#935000
1!
b100 *
1-
b100 6
b0 9
b0 :

